<?xml version="1.0" encoding="UTF-8" standalone="no"?>
<svg
   xmlns:sketch="http://www.bohemiancoding.com/sketch/ns"
   xmlns:dc="http://purl.org/dc/elements/1.1/"
   xmlns:cc="http://creativecommons.org/ns#"
   xmlns:rdf="http://www.w3.org/1999/02/22-rdf-syntax-ns#"
   xmlns:svg="http://www.w3.org/2000/svg"
   xmlns="http://www.w3.org/2000/svg"
   xmlns:sodipodi="http://sodipodi.sourceforge.net/DTD/sodipodi-0.dtd"
   xmlns:inkscape="http://www.inkscape.org/namespaces/inkscape"
   width="642"
   height="80"
   viewBox="0 0 642 80"
   version="1.1"
   style="font-family:Menlo, 'DejaVu Sans Mono', Consolas, Courier"
   id="svg1934"
   sodipodi:docname="byte_J-Format.svg"
   inkscape:version="0.92.2 (5c3e80d, 2017-08-06)"
   inkscape:export-filename="/home/arthur/Programmation/projet_MIPS/doc/images/byte_J-Format.png"
   inkscape:export-xdpi="300"
   inkscape:export-ydpi="300">
  <rect
     style="font-family:Menlo, 'DejaVu Sans Mono', Consolas, Courier;fill:#ffffff;fill-opacity:1;stroke:none;stroke-width:4;stroke-linejoin:round;stroke-miterlimit:4;stroke-dasharray:none;stroke-opacity:0.49803922"
     id="rect6934-0-4-7-6-8"
     width="640"
     height="38"
     x="-641"
     y="40"
     transform="scale(-1,1)" />
  <rect
     style="fill:#ffffff;fill-opacity:0.3137255;stroke:none;stroke-width:1.73205078;stroke-linejoin:round;stroke-miterlimit:4;stroke-dasharray:none;stroke-opacity:0.49803922"
     id="rect6934"
     width="120"
     height="38"
     x="1"
     y="40" />
  <metadata
     id="metadata1938">
    <rdf:RDF>
      <cc:Work
         rdf:about="">
        <dc:format>image/svg+xml</dc:format>
        <dc:type
           rdf:resource="http://purl.org/dc/dcmitype/StillImage" />
        <dc:title>Bit fields</dc:title>
      </cc:Work>
    </rdf:RDF>
  </metadata>
  <sodipodi:namedview
     pagecolor="#ffffff"
     bordercolor="#666666"
     borderopacity="1"
     objecttolerance="10"
     gridtolerance="10"
     guidetolerance="10"
     inkscape:pageopacity="0"
     inkscape:pageshadow="2"
     inkscape:window-width="1920"
     inkscape:window-height="1025"
     id="namedview1936"
     showgrid="false"
     inkscape:snap-bbox="true"
     inkscape:snap-bbox-midpoints="true"
     inkscape:snap-page="true"
     inkscape:snap-center="false"
     inkscape:snap-object-midpoints="false"
     inkscape:snap-text-baseline="true"
     showguides="true"
     inkscape:guide-bbox="true"
     inkscape:snap-midpoints="true"
     inkscape:zoom="1.52"
     inkscape:cx="92.886233"
     inkscape:cy="129.02439"
     inkscape:window-x="0"
     inkscape:window-y="27"
     inkscape:window-maximized="1"
     inkscape:current-layer="svg1934"
     inkscape:snap-bbox-edge-midpoints="true">
    <sodipodi:guide
       position="271,15.453451"
       orientation="0,1"
       id="guide6335"
       inkscape:locked="false" />
    <sodipodi:guide
       position="627.98975,47"
       orientation="0,1"
       id="guide6337"
       inkscape:locked="false" />
    <sodipodi:guide
       position="241,40"
       orientation="1,0"
       id="guide6370"
       inkscape:locked="false" />
    <sodipodi:guide
       position="201,40"
       orientation="1,0"
       id="guide6372"
       inkscape:locked="false" />
    <sodipodi:guide
       position="221,40"
       orientation="1,0"
       id="guide6374"
       inkscape:locked="false" />
    <sodipodi:guide
       position="181,40"
       orientation="1,0"
       id="guide6376"
       inkscape:locked="false" />
    <sodipodi:guide
       position="161,40"
       orientation="1,0"
       id="guide6378"
       inkscape:locked="false" />
    <sodipodi:guide
       position="261,40"
       orientation="1,0"
       id="guide6380"
       inkscape:locked="false" />
    <sodipodi:guide
       position="281,40"
       orientation="1,0"
       id="guide6382"
       inkscape:locked="false" />
    <sodipodi:guide
       position="301,40"
       orientation="1,0"
       id="guide6384"
       inkscape:locked="false" />
    <sodipodi:guide
       position="481,40"
       orientation="1,0"
       id="guide6386"
       inkscape:locked="false" />
    <sodipodi:guide
       position="461,40"
       orientation="1,0"
       id="guide6388"
       inkscape:locked="false" />
    <sodipodi:guide
       position="441,40"
       orientation="1,0"
       id="guide6390"
       inkscape:locked="false" />
    <sodipodi:guide
       position="421,40"
       orientation="1,0"
       id="guide6392"
       inkscape:locked="false" />
    <sodipodi:guide
       position="402,40"
       orientation="1,0"
       id="guide6394"
       inkscape:locked="false" />
    <sodipodi:guide
       position="381,40"
       orientation="1,0"
       id="guide6396"
       inkscape:locked="false" />
    <sodipodi:guide
       position="501,40"
       orientation="1,0"
       id="guide6398"
       inkscape:locked="false" />
    <sodipodi:guide
       position="521,40"
       orientation="1,0"
       id="guide6400"
       inkscape:locked="false" />
    <sodipodi:guide
       position="541,40"
       orientation="1,0"
       id="guide6402"
       inkscape:locked="false" />
    <sodipodi:guide
       position="481,40"
       orientation="0,1"
       id="guide6404"
       inkscape:locked="false" />
    <sodipodi:guide
       position="481,2"
       orientation="0,1"
       id="guide6406"
       inkscape:locked="false" />
    <sodipodi:guide
       position="621,40"
       orientation="1,0"
       id="guide6408"
       inkscape:locked="false" />
    <sodipodi:guide
       position="581,40"
       orientation="1,0"
       id="guide6410"
       inkscape:locked="false" />
    <sodipodi:guide
       position="561,40"
       orientation="1,0"
       id="guide6412"
       inkscape:locked="false" />
    <sodipodi:guide
       position="601,40"
       orientation="1,0"
       id="guide6414"
       inkscape:locked="false" />
    <sodipodi:guide
       position="321,40"
       orientation="1,0"
       id="guide6416"
       inkscape:locked="false" />
    <sodipodi:guide
       position="341,40"
       orientation="1,0"
       id="guide6418"
       inkscape:locked="false" />
    <sodipodi:guide
       position="361,40"
       orientation="1,0"
       id="guide6420"
       inkscape:locked="false" />
    <sodipodi:guide
       position="21,40"
       orientation="1,0"
       id="guide6422"
       inkscape:locked="false" />
    <sodipodi:guide
       position="41,40"
       orientation="1,0"
       id="guide6424"
       inkscape:locked="false" />
    <sodipodi:guide
       position="61,40"
       orientation="1,0"
       id="guide6426"
       inkscape:locked="false" />
    <sodipodi:guide
       position="81,40"
       orientation="1,0"
       id="guide6428"
       inkscape:locked="false" />
    <sodipodi:guide
       position="101,40"
       orientation="1,0"
       id="guide6430"
       inkscape:locked="false" />
    <sodipodi:guide
       position="121,40"
       orientation="1,0"
       id="guide6432"
       inkscape:locked="false" />
    <sodipodi:guide
       position="141,40"
       orientation="1,0"
       id="guide6434"
       inkscape:locked="false" />
    <sodipodi:guide
       position="641,-12.582054"
       orientation="1,0"
       id="guide6438"
       inkscape:locked="false" />
    <sodipodi:guide
       position="1,-13.562477"
       orientation="1,0"
       id="guide6440"
       inkscape:locked="false" />
    <sodipodi:guide
       position="41,35.131715"
       orientation="0,1"
       id="guide6442"
       inkscape:locked="false" />
    <sodipodi:guide
       position="41,5.0655031"
       orientation="0,1"
       id="guide6444"
       inkscape:locked="false" />
    <sodipodi:guide
       position="161,32.190455"
       orientation="0,1"
       id="guide6551"
       inkscape:locked="false" />
    <sodipodi:guide
       position="161,8.006763"
       orientation="0,1"
       id="guide6553"
       inkscape:locked="false" />
    <sodipodi:guide
       position="561,58.825197"
       orientation="0,1"
       id="guide6891"
       inkscape:locked="false" />
  </sodipodi:namedview>
  <title
     id="title1755">Bit fields</title>
  <description>Created with Sketch (http://www.bohemiancoding.com/sketch)</description>
  <rect
     style="fill:none;fill-rule:evenodd;stroke:#000000;stroke-width:2;fill-opacity:1"
     height="40"
     width="640"
     y="39"
     x="1"
     sketch:type="MSShapeGroup"
     id="Outline" />
  <defs
     id="defs1757" />
  <text
     style="font-weight:normal;font-size:9.33333302px;text-align:center;text-anchor:middle;fill:#000000;fill-rule:evenodd;stroke:none;stroke-width:1"
     id="31"
     sketch:type="MSTextLayer"
     x="12.008464"
     y="25">
    <tspan
       x="11"
       y="34"
       id="tspan1759"
       style="font-size:9.33333302px;text-align:center;text-anchor:middle">31</tspan>
  </text>
  <text
     style="font-weight:normal;font-size:9.33333302px;text-align:center;text-anchor:middle;fill:#000000;fill-rule:evenodd;stroke:none;stroke-width:1"
     id="30"
     sketch:type="MSTextLayer"
     x="12.022136"
     y="25">
    <tspan
       x="31"
       y="34"
       id="tspan1762"
       style="font-size:9.33333302px;text-align:center;text-anchor:middle">30</tspan>
  </text>
  <text
     style="font-weight:normal;font-size:9.33333302px;text-align:center;text-anchor:middle;fill:#000000;fill-rule:evenodd;stroke:none;stroke-width:1"
     id="29"
     sketch:type="MSTextLayer"
     x="11.974284"
     y="25">
    <tspan
       x="51"
       y="34"
       id="tspan1765"
       style="font-size:9.33333302px;text-align:center;text-anchor:middle">29</tspan>
  </text>
  <text
     style="font-weight:normal;font-size:9.33333302px;text-align:center;text-anchor:middle;fill:#000000;fill-rule:evenodd;stroke:none;stroke-width:1"
     id="28"
     sketch:type="MSTextLayer"
     x="11.992513"
     y="25">
    <tspan
       x="71"
       y="34"
       id="tspan1768"
       style="font-size:9.33333302px;text-align:center;text-anchor:middle">28</tspan>
  </text>
  <text
     style="font-weight:normal;font-size:9.33333302px;text-align:center;text-anchor:middle;fill:#000000;fill-rule:evenodd;stroke:none;stroke-width:1"
     id="27"
     sketch:type="MSTextLayer"
     x="11.940104"
     y="25">
    <tspan
       x="91"
       y="34"
       id="tspan1771"
       style="font-size:9.33333302px;text-align:center;text-anchor:middle">27</tspan>
  </text>
  <text
     style="font-weight:normal;font-size:9.33333302px;text-align:center;text-anchor:middle;fill:#000000;fill-rule:evenodd;stroke:none;stroke-width:1"
     id="26"
     sketch:type="MSTextLayer"
     x="11.987956"
     y="25">
    <tspan
       x="111"
       y="34"
       id="tspan1774"
       style="font-size:9.33333302px;text-align:center;text-anchor:middle">26</tspan>
  </text>
  <text
     style="font-weight:normal;font-size:9.33333302px;text-align:center;text-anchor:middle;fill:#000000;fill-rule:evenodd;stroke:none;stroke-width:1"
     id="25"
     sketch:type="MSTextLayer"
     x="11.917317"
     y="25">
    <tspan
       x="131"
       y="34"
       id="tspan1777"
       style="font-size:9.33333302px;text-align:center;text-anchor:middle">25</tspan>
  </text>
  <text
     style="font-weight:normal;font-size:9.33333302px;text-align:center;text-anchor:middle;fill:#000000;fill-rule:evenodd;stroke:none;stroke-width:1"
     id="24"
     sketch:type="MSTextLayer"
     x="12.067708"
     y="25">
    <tspan
       x="151"
       y="34"
       id="tspan1780"
       style="font-size:9.33333302px;text-align:center;text-anchor:middle">24</tspan>
  </text>
  <text
     style="font-weight:normal;font-size:9.33333302px;text-align:center;text-anchor:middle;fill:#000000;fill-rule:evenodd;stroke:none;stroke-width:1"
     id="23"
     sketch:type="MSTextLayer"
     x="11.940104"
     y="25">
    <tspan
       x="171"
       y="34"
       id="tspan1783"
       style="font-size:9.33333302px;text-align:center;text-anchor:middle">23</tspan>
  </text>
  <text
     style="font-weight:normal;font-size:9.33333302px;text-align:center;text-anchor:middle;fill:#000000;fill-rule:evenodd;stroke:none;stroke-width:1"
     id="22"
     sketch:type="MSTextLayer"
     x="11.894531"
     y="25">
    <tspan
       x="191"
       y="34"
       id="tspan1786"
       style="font-size:9.33333302px;text-align:center;text-anchor:middle">22</tspan>
  </text>
  <text
     style="font-weight:normal;font-size:9.33333302px;text-align:center;text-anchor:middle;fill:#000000;fill-rule:evenodd;stroke:none;stroke-width:1"
     id="21"
     sketch:type="MSTextLayer"
     x="11.974284"
     y="25">
    <tspan
       x="211"
       y="34"
       id="tspan1789"
       style="font-size:9.33333302px;text-align:center;text-anchor:middle">21</tspan>
  </text>
  <text
     style="font-weight:normal;font-size:9.33333302px;text-align:center;text-anchor:middle;fill:#000000;fill-rule:evenodd;stroke:none;stroke-width:1"
     y="25"
     x="17.310221"
     id="20"
     sketch:type="MSTextLayer">
    <tspan
       style="font-size:9.33333302px;text-align:center;text-anchor:middle"
       x="231"
       y="34"
       id="tspan1792">2<tspan
   id="tspan6788"
   style="font-size:9.33333302px;text-align:center;text-anchor:middle">0</tspan>
</tspan>
  </text>
  <text
     style="font-weight:normal;font-size:9.33333302px;text-align:center;text-anchor:middle;fill:#000000;fill-rule:evenodd;stroke:none;stroke-width:1"
     id="19"
     sketch:type="MSTextLayer"
     x="11.760091"
     y="25">
    <tspan
       x="251"
       y="34"
       id="tspan1795"
       style="font-size:9.33333302px;text-align:center;text-anchor:middle">19</tspan>
  </text>
  <text
     style="font-weight:normal;font-size:9.33333302px;text-align:center;text-anchor:middle;fill:#000000;fill-rule:evenodd;stroke:none;stroke-width:1"
     id="18"
     sketch:type="MSTextLayer"
     x="11.77832"
     y="25">
    <tspan
       x="271"
       y="34"
       id="tspan1798"
       style="font-size:9.33333302px;text-align:center;text-anchor:middle">18</tspan>
  </text>
  <text
     style="font-weight:normal;font-size:9.33333302px;text-align:center;text-anchor:middle;fill:#000000;fill-rule:evenodd;stroke:none;stroke-width:1"
     id="17"
     sketch:type="MSTextLayer"
     x="11.725911"
     y="25">
    <tspan
       x="291"
       y="34"
       id="tspan1801"
       style="font-size:9.33333302px;text-align:center;text-anchor:middle">17</tspan>
  </text>
  <text
     style="font-weight:normal;font-size:9.33333302px;text-align:center;text-anchor:middle;fill:#000000;fill-rule:evenodd;stroke:none;stroke-width:1"
     id="16"
     sketch:type="MSTextLayer"
     x="11.773763"
     y="25">
    <tspan
       x="311"
       y="34"
       id="tspan1804"
       style="font-size:9.33333302px;text-align:center;text-anchor:middle">16</tspan>
  </text>
  <text
     style="font-weight:normal;font-size:9.33333302px;text-align:center;text-anchor:middle;fill:#000000;fill-rule:evenodd;stroke:none;stroke-width:1"
     id="15"
     sketch:type="MSTextLayer"
     x="11.703125"
     y="25">
    <tspan
       x="331"
       y="34"
       id="tspan1807"
       style="font-size:9.33333302px;text-align:center;text-anchor:middle">15</tspan>
  </text>
  <text
     style="font-weight:normal;font-size:9.33333302px;fill:#000000;fill-rule:evenodd;stroke:none;stroke-width:1"
     id="14"
     sketch:type="MSTextLayer"
     x="11.853516"
     y="25">
    <tspan
       x="351"
       y="34"
       id="tspan1810"
       style="font-size:9.33333302px;text-align:center;text-anchor:middle">14</tspan>
  </text>
  <text
     style="font-weight:normal;font-size:9.33333302px;text-align:center;text-anchor:middle;fill:#000000;fill-rule:evenodd;stroke:none;stroke-width:1;"
     id="13"
     sketch:type="MSTextLayer"
     x="11.725911"
     y="25">
    <tspan
       x="371"
       y="34"
       id="tspan1813"
       style="font-size:9.33333302px;text-align:center;text-anchor:middle;">13</tspan>
  </text>
  <text
     style="font-weight:normal;font-size:9.33333302px;text-align:center;text-anchor:middle;fill:#000000;fill-rule:evenodd;stroke:none;stroke-width:1;"
     id="12"
     sketch:type="MSTextLayer"
     x="11.680338"
     y="25">
    <tspan
       x="391"
       y="34"
       id="tspan1816"
       style="font-size:9.33333302px;text-align:center;text-anchor:middle;">12</tspan>
  </text>
  <text
     style="font-weight:normal;font-size:9.33333302px;text-align:center;text-anchor:middle;fill:#000000;fill-rule:evenodd;stroke:none;stroke-width:1;"
     id="11"
     sketch:type="MSTextLayer"
     x="11.760091"
     y="25">
    <tspan
       x="411"
       y="34"
       id="tspan1819"
       style="font-size:9.33333302px;text-align:center;text-anchor:middle;">11</tspan>
  </text>
  <text
     style="font-weight:normal;font-size:9.33333302px;text-align:center;text-anchor:middle;fill:#000000;fill-rule:evenodd;stroke:none;stroke-width:1;"
     id="10"
     sketch:type="MSTextLayer"
     x="11.773763"
     y="25">
    <tspan
       x="431"
       y="34"
       id="tspan1822"
       style="font-size:9.33333302px;text-align:center;text-anchor:middle;">10</tspan>
  </text>
  <text
     style="font-weight:normal;font-size:9.33333302px;text-align:center;text-anchor:middle;fill:#000000;fill-rule:evenodd;stroke:none;stroke-width:1"
     id="9"
     sketch:type="MSTextLayer"
     x="6.2137146"
     y="25">
    <tspan
       x="451"
       y="34"
       id="tspan1825"
       style="font-size:9.33333302px;text-align:center;text-anchor:middle">9</tspan>
  </text>
  <text
     style="font-weight:normal;font-size:9.33333302px;text-align:center;text-anchor:middle;fill:#000000;fill-rule:evenodd;stroke:none;stroke-width:1"
     id="8"
     sketch:type="MSTextLayer"
     x="6.2228289"
     y="25">
    <tspan
       x="471"
       y="34"
       id="tspan1828"
       style="font-size:9.33333302px;text-align:center;text-anchor:middle">8</tspan>
  </text>
  <text
     style="font-weight:normal;font-size:9.33333302px;text-align:center;text-anchor:middle;fill:#000000;fill-rule:evenodd;stroke:none;stroke-width:1"
     id="7"
     sketch:type="MSTextLayer"
     x="6.1521912"
     y="25">
    <tspan
       x="491"
       y="34"
       id="tspan1831"
       style="font-size:9.33333302px;text-align:center;text-anchor:middle">7</tspan>
  </text>
  <text
     style="font-weight:normal;font-size:9.33333302px;text-align:center;text-anchor:middle;fill:#000000;fill-rule:evenodd;stroke:none;stroke-width:1"
     id="6"
     sketch:type="MSTextLayer"
     x="6.2137146"
     y="25">
    <tspan
       x="511"
       y="34"
       id="tspan1834"
       style="font-size:9.33333302px;text-align:center;text-anchor:middle">6</tspan>
  </text>
  <text
     style="font-weight:normal;font-size:9.33333302px;text-align:center;text-anchor:middle;fill:#000000;fill-rule:evenodd;stroke:none;stroke-width:1"
     id="5"
     sketch:type="MSTextLayer"
     x="6.1202898"
     y="25">
    <tspan
       x="531"
       y="34"
       id="tspan1837"
       style="font-size:9.33333302px;text-align:center;text-anchor:middle">5</tspan>
  </text>
  <text
     style="font-weight:normal;font-size:9.33333302px;text-align:center;text-anchor:middle;fill:#000000;fill-rule:evenodd;stroke:none;stroke-width:1"
     id="4"
     sketch:type="MSTextLayer"
     x="6.3641047"
     y="25">
    <tspan
       x="551"
       y="34"
       id="tspan1840"
       style="font-size:9.33333302px;text-align:center;text-anchor:middle">4</tspan>
  </text>
  <text
     style="font-weight:normal;font-size:9.33333302px;text-align:center;text-anchor:middle;fill:#000000;fill-rule:evenodd;stroke:none;stroke-width:1"
     id="3"
     sketch:type="MSTextLayer"
     x="6.1567483"
     y="25">
    <tspan
       x="571"
       y="34"
       id="tspan1843"
       style="font-size:9.33333302px;text-align:center;text-anchor:middle">3</tspan>
  </text>
  <text
     style="font-weight:normal;font-size:9.33333302px;text-align:center;text-anchor:middle;fill:#000000;fill-rule:evenodd;stroke:none;stroke-width:1"
     id="2"
     sketch:type="MSTextLayer"
     x="6.0769958"
     y="25">
    <tspan
       x="591"
       y="34"
       id="tspan1846"
       style="font-size:9.33333302px;text-align:center;text-anchor:middle">2</tspan>
  </text>
  <text
     style="font-weight:normal;font-size:9.33333302px;text-align:center;text-anchor:middle;fill:#000000;fill-rule:evenodd;stroke:none;stroke-width:1"
     id="1"
     sketch:type="MSTextLayer"
     x="5.9425554"
     y="25">
    <tspan
       x="611"
       y="34"
       id="tspan1849"
       style="font-size:9.33333302px;text-align:center;text-anchor:middle">1</tspan>
  </text>
  <text
     style="font-weight:normal;font-size:9.33333302px;text-align:center;text-anchor:middle;fill:#000000;fill-rule:evenodd;stroke:none;stroke-width:1"
     id="0"
     sketch:type="MSTextLayer"
     x="6.2137146"
     y="25">
    <tspan
       x="631"
       y="34"
       id="tspan1852"
       style="font-size:9.33333302px;text-align:center;text-anchor:middle">0</tspan>
  </text>
  <g
     id="g6549"
     transform="translate(0,24)">
    <path
       inkscape:connector-curvature="0"
       id="path6446"
       d="M 21,20.868285 V 16"
       style="fill:none;stroke:#000000;stroke-width:2;stroke-linecap:butt;stroke-linejoin:miter;stroke-miterlimit:4;stroke-dasharray:none;stroke-opacity:0.17733992" />
    <path
       sodipodi:nodetypes="cc"
       inkscape:connector-curvature="0"
       id="path6446-3"
       d="M 21,54 V 50.934497"
       style="font-family:Menlo, 'DejaVu Sans Mono', Consolas, Courier;fill:none;stroke:#000000;stroke-width:2;stroke-linecap:butt;stroke-linejoin:miter;stroke-miterlimit:4;stroke-dasharray:none;stroke-opacity:0.17733992" />
    <path
       inkscape:connector-curvature="0"
       id="path6446-6"
       d="M 41,20.868285 V 16"
       style="font-family:Menlo, 'DejaVu Sans Mono', Consolas, Courier;fill:none;stroke:#000000;stroke-width:2;stroke-linecap:butt;stroke-linejoin:miter;stroke-miterlimit:4;stroke-dasharray:none;stroke-opacity:0.17733992" />
    <path
       sodipodi:nodetypes="cc"
       inkscape:connector-curvature="0"
       id="path6446-3-7"
       d="M 41,54 V 50.934497"
       style="font-family:Menlo, 'DejaVu Sans Mono', Consolas, Courier;fill:none;stroke:#000000;stroke-width:2;stroke-linecap:butt;stroke-linejoin:miter;stroke-miterlimit:4;stroke-dasharray:none;stroke-opacity:0.17733992" />
    <path
       inkscape:connector-curvature="0"
       id="path6446-5"
       d="M 61,20.868285 V 16"
       style="font-family:Menlo, 'DejaVu Sans Mono', Consolas, Courier;fill:none;stroke:#000000;stroke-width:2;stroke-linecap:butt;stroke-linejoin:miter;stroke-miterlimit:4;stroke-dasharray:none;stroke-opacity:0.17733992" />
    <path
       sodipodi:nodetypes="cc"
       inkscape:connector-curvature="0"
       id="path6446-3-3"
       d="M 61,54 V 50.934497"
       style="font-family:Menlo, 'DejaVu Sans Mono', Consolas, Courier;fill:none;stroke:#000000;stroke-width:2;stroke-linecap:butt;stroke-linejoin:miter;stroke-miterlimit:4;stroke-dasharray:none;stroke-opacity:0.17733992" />
    <path
       inkscape:connector-curvature="0"
       id="path6446-6-5"
       d="M 81,20.868285 V 16"
       style="font-family:Menlo, 'DejaVu Sans Mono', Consolas, Courier;fill:none;stroke:#000000;stroke-width:2;stroke-linecap:butt;stroke-linejoin:miter;stroke-miterlimit:4;stroke-dasharray:none;stroke-opacity:0.17733992" />
    <path
       sodipodi:nodetypes="cc"
       inkscape:connector-curvature="0"
       id="path6446-3-7-6"
       d="M 81,54 V 50.934497"
       style="font-family:Menlo, 'DejaVu Sans Mono', Consolas, Courier;fill:none;stroke:#000000;stroke-width:2;stroke-linecap:butt;stroke-linejoin:miter;stroke-miterlimit:4;stroke-dasharray:none;stroke-opacity:0.17733992" />
    <path
       inkscape:connector-curvature="0"
       id="path6446-6-2"
       d="M 101,20.868285 V 16"
       style="font-family:Menlo, 'DejaVu Sans Mono', Consolas, Courier;fill:none;stroke:#000000;stroke-width:2;stroke-linecap:butt;stroke-linejoin:miter;stroke-miterlimit:4;stroke-dasharray:none;stroke-opacity:0.17733992" />
    <path
       sodipodi:nodetypes="cc"
       inkscape:connector-curvature="0"
       id="path6446-3-7-9"
       d="M 101,54 V 50.934497"
       style="font-family:Menlo, 'DejaVu Sans Mono', Consolas, Courier;fill:none;stroke:#000000;stroke-width:2;stroke-linecap:butt;stroke-linejoin:miter;stroke-miterlimit:4;stroke-dasharray:none;stroke-opacity:0.17733992" />
    <path
       inkscape:connector-curvature="0"
       id="path6446-5-1"
       d="M 121,20.868285 V 16"
       style="font-family:Menlo, 'DejaVu Sans Mono', Consolas, Courier;fill:none;stroke:#000000;stroke-width:2;stroke-linecap:butt;stroke-linejoin:miter;stroke-miterlimit:4;stroke-dasharray:none;stroke-opacity:0.17733992" />
    <path
       sodipodi:nodetypes="cc"
       inkscape:connector-curvature="0"
       id="path6446-3-3-2"
       d="M 121,54 V 50.934497"
       style="font-family:Menlo, 'DejaVu Sans Mono', Consolas, Courier;fill:none;stroke:#000000;stroke-width:2;stroke-linecap:butt;stroke-linejoin:miter;stroke-miterlimit:4;stroke-dasharray:none;stroke-opacity:0.17733992" />
    <path
       inkscape:connector-curvature="0"
       id="path6446-6-5-7"
       d="M 141,20.868285 V 16"
       style="font-family:Menlo, 'DejaVu Sans Mono', Consolas, Courier;fill:none;stroke:#000000;stroke-width:2;stroke-linecap:butt;stroke-linejoin:miter;stroke-miterlimit:4;stroke-dasharray:none;stroke-opacity:0.17733992" />
    <path
       sodipodi:nodetypes="cc"
       inkscape:connector-curvature="0"
       id="path6446-3-7-6-0"
       d="M 141,54 V 50.934497"
       style="font-family:Menlo, 'DejaVu Sans Mono', Consolas, Courier;fill:none;stroke:#000000;stroke-width:2;stroke-linecap:butt;stroke-linejoin:miter;stroke-miterlimit:4;stroke-dasharray:none;stroke-opacity:0.17733992" />
  </g>
  <path
     style="font-family:Menlo, 'DejaVu Sans Mono', Consolas, Courier;fill:none;stroke:#000000;stroke-width:2;stroke-linecap:butt;stroke-linejoin:miter;stroke-miterlimit:4;stroke-dasharray:none;stroke-opacity:0.49803922"
     d="M 161,47.809545 V 40"
     id="path6446-6-5-6"
     inkscape:connector-curvature="0"
     sodipodi:nodetypes="cc" />
  <path
     style="font-family:Menlo, 'DejaVu Sans Mono', Consolas, Courier;fill:none;stroke:#000000;stroke-width:2;stroke-linecap:butt;stroke-linejoin:miter;stroke-miterlimit:4;stroke-dasharray:none;stroke-opacity:0.49803922"
     d="M 161,78 V 71.993237"
     id="path6446-3-7-6-2"
     inkscape:connector-curvature="0"
     sodipodi:nodetypes="cc" />
  <g
     style="font-family:Menlo, 'DejaVu Sans Mono', Consolas, Courier"
     id="g6549-1"
     transform="translate(160,24)">
    <path
       inkscape:connector-curvature="0"
       id="path6446-8"
       d="M 21,20.868285 V 16"
       style="fill:none;stroke:#000000;stroke-width:2;stroke-linecap:butt;stroke-linejoin:miter;stroke-miterlimit:4;stroke-dasharray:none;stroke-opacity:0.17733992" />
    <path
       sodipodi:nodetypes="cc"
       inkscape:connector-curvature="0"
       id="path6446-3-79"
       d="M 21,54 V 50.934497"
       style="font-family:Menlo, 'DejaVu Sans Mono', Consolas, Courier;fill:none;stroke:#000000;stroke-width:2;stroke-linecap:butt;stroke-linejoin:miter;stroke-miterlimit:4;stroke-dasharray:none;stroke-opacity:0.17733992" />
    <path
       inkscape:connector-curvature="0"
       id="path6446-6-20"
       d="M 41,20.868285 V 16"
       style="font-family:Menlo, 'DejaVu Sans Mono', Consolas, Courier;fill:none;stroke:#000000;stroke-width:2;stroke-linecap:butt;stroke-linejoin:miter;stroke-miterlimit:4;stroke-dasharray:none;stroke-opacity:0.17733992" />
    <path
       sodipodi:nodetypes="cc"
       inkscape:connector-curvature="0"
       id="path6446-3-7-2"
       d="M 41,54 V 50.934497"
       style="font-family:Menlo, 'DejaVu Sans Mono', Consolas, Courier;fill:none;stroke:#000000;stroke-width:2;stroke-linecap:butt;stroke-linejoin:miter;stroke-miterlimit:4;stroke-dasharray:none;stroke-opacity:0.17733992" />
    <path
       inkscape:connector-curvature="0"
       id="path6446-5-3"
       d="M 61,20.868285 V 16"
       style="font-family:Menlo, 'DejaVu Sans Mono', Consolas, Courier;fill:none;stroke:#000000;stroke-width:2;stroke-linecap:butt;stroke-linejoin:miter;stroke-miterlimit:4;stroke-dasharray:none;stroke-opacity:0.17733992" />
    <path
       sodipodi:nodetypes="cc"
       inkscape:connector-curvature="0"
       id="path6446-3-3-7"
       d="M 61,54 V 50.934497"
       style="font-family:Menlo, 'DejaVu Sans Mono', Consolas, Courier;fill:none;stroke:#000000;stroke-width:2;stroke-linecap:butt;stroke-linejoin:miter;stroke-miterlimit:4;stroke-dasharray:none;stroke-opacity:0.17733992" />
    <path
       inkscape:connector-curvature="0"
       id="path6446-6-5-5"
       d="M 81,20.868285 V 16"
       style="font-family:Menlo, 'DejaVu Sans Mono', Consolas, Courier;fill:none;stroke:#000000;stroke-width:2;stroke-linecap:butt;stroke-linejoin:miter;stroke-miterlimit:4;stroke-dasharray:none;stroke-opacity:0.17733992" />
    <path
       sodipodi:nodetypes="cc"
       inkscape:connector-curvature="0"
       id="path6446-3-7-6-9"
       d="M 81,54 V 50.934497"
       style="font-family:Menlo, 'DejaVu Sans Mono', Consolas, Courier;fill:none;stroke:#000000;stroke-width:2;stroke-linecap:butt;stroke-linejoin:miter;stroke-miterlimit:4;stroke-dasharray:none;stroke-opacity:0.17733992" />
    <path
       inkscape:connector-curvature="0"
       id="path6446-6-2-2"
       d="M 101,20.868285 V 16"
       style="font-family:Menlo, 'DejaVu Sans Mono', Consolas, Courier;fill:none;stroke:#000000;stroke-width:2;stroke-linecap:butt;stroke-linejoin:miter;stroke-miterlimit:4;stroke-dasharray:none;stroke-opacity:0.17733992" />
    <path
       sodipodi:nodetypes="cc"
       inkscape:connector-curvature="0"
       id="path6446-3-7-9-2"
       d="M 101,54 V 50.934497"
       style="font-family:Menlo, 'DejaVu Sans Mono', Consolas, Courier;fill:none;stroke:#000000;stroke-width:2;stroke-linecap:butt;stroke-linejoin:miter;stroke-miterlimit:4;stroke-dasharray:none;stroke-opacity:0.17733992" />
    <path
       inkscape:connector-curvature="0"
       id="path6446-5-1-8"
       d="M 121,20.868285 V 16"
       style="font-family:Menlo, 'DejaVu Sans Mono', Consolas, Courier;fill:none;stroke:#000000;stroke-width:2;stroke-linecap:butt;stroke-linejoin:miter;stroke-miterlimit:4;stroke-dasharray:none;stroke-opacity:0.17733992" />
    <path
       sodipodi:nodetypes="cc"
       inkscape:connector-curvature="0"
       id="path6446-3-3-2-9"
       d="M 121,54 V 50.934497"
       style="font-family:Menlo, 'DejaVu Sans Mono', Consolas, Courier;fill:none;stroke:#000000;stroke-width:2;stroke-linecap:butt;stroke-linejoin:miter;stroke-miterlimit:4;stroke-dasharray:none;stroke-opacity:0.17733992" />
    <path
       inkscape:connector-curvature="0"
       id="path6446-6-5-7-7"
       d="M 141,20.868285 V 16"
       style="font-family:Menlo, 'DejaVu Sans Mono', Consolas, Courier;fill:none;stroke:#000000;stroke-width:2;stroke-linecap:butt;stroke-linejoin:miter;stroke-miterlimit:4;stroke-dasharray:none;stroke-opacity:0.17733992" />
    <path
       sodipodi:nodetypes="cc"
       inkscape:connector-curvature="0"
       id="path6446-3-7-6-0-3"
       d="M 141,54 V 50.934497"
       style="font-family:Menlo, 'DejaVu Sans Mono', Consolas, Courier;fill:none;stroke:#000000;stroke-width:2;stroke-linecap:butt;stroke-linejoin:miter;stroke-miterlimit:4;stroke-dasharray:none;stroke-opacity:0.17733992" />
  </g>
  <path
     style="font-family:Menlo, 'DejaVu Sans Mono', Consolas, Courier;fill:none;stroke:#000000;stroke-width:2;stroke-linecap:butt;stroke-linejoin:miter;stroke-miterlimit:4;stroke-dasharray:none;stroke-opacity:0.49803922"
     d="M 321,47.809545 V 40"
     id="path6446-6-5-6-6"
     inkscape:connector-curvature="0"
     sodipodi:nodetypes="cc" />
  <path
     style="font-family:Menlo, 'DejaVu Sans Mono', Consolas, Courier;fill:none;stroke:#000000;stroke-width:2;stroke-linecap:butt;stroke-linejoin:miter;stroke-miterlimit:4;stroke-dasharray:none;stroke-opacity:0.49803922"
     d="M 321,78 V 71.993237"
     id="path6446-3-7-6-2-1"
     inkscape:connector-curvature="0"
     sodipodi:nodetypes="cc" />
  <g
     transform="translate(320,24)"
     style="font-family:Menlo, 'DejaVu Sans Mono', Consolas, Courier"
     id="g6588-2">
    <g
       id="g6549-9">
      <path
         style="fill:none;stroke:#000000;stroke-width:2;stroke-linecap:butt;stroke-linejoin:miter;stroke-miterlimit:4;stroke-dasharray:none;stroke-opacity:0.17733992"
         d="M 21,20.868285 V 16"
         id="path6446-31"
         inkscape:connector-curvature="0" />
      <path
         style="font-family:Menlo, 'DejaVu Sans Mono', Consolas, Courier;fill:none;stroke:#000000;stroke-width:2;stroke-linecap:butt;stroke-linejoin:miter;stroke-miterlimit:4;stroke-dasharray:none;stroke-opacity:0.17733992"
         d="M 21,54 V 50.934497"
         id="path6446-3-9"
         inkscape:connector-curvature="0"
         sodipodi:nodetypes="cc" />
      <path
         style="font-family:Menlo, 'DejaVu Sans Mono', Consolas, Courier;fill:none;stroke:#000000;stroke-width:2;stroke-linecap:butt;stroke-linejoin:miter;stroke-miterlimit:4;stroke-dasharray:none;stroke-opacity:0.17733992"
         d="M 41,20.868285 V 16"
         id="path6446-6-4"
         inkscape:connector-curvature="0" />
      <path
         style="font-family:Menlo, 'DejaVu Sans Mono', Consolas, Courier;fill:none;stroke:#000000;stroke-width:2;stroke-linecap:butt;stroke-linejoin:miter;stroke-miterlimit:4;stroke-dasharray:none;stroke-opacity:0.17733992"
         d="M 41,54 V 50.934497"
         id="path6446-3-7-7"
         inkscape:connector-curvature="0"
         sodipodi:nodetypes="cc" />
      <path
         style="font-family:Menlo, 'DejaVu Sans Mono', Consolas, Courier;fill:none;stroke:#000000;stroke-width:2;stroke-linecap:butt;stroke-linejoin:miter;stroke-miterlimit:4;stroke-dasharray:none;stroke-opacity:0.17733992"
         d="M 61,20.868285 V 16"
         id="path6446-5-8"
         inkscape:connector-curvature="0" />
      <path
         style="font-family:Menlo, 'DejaVu Sans Mono', Consolas, Courier;fill:none;stroke:#000000;stroke-width:2;stroke-linecap:butt;stroke-linejoin:miter;stroke-miterlimit:4;stroke-dasharray:none;stroke-opacity:0.17733992"
         d="M 61,54 V 50.934497"
         id="path6446-3-3-4"
         inkscape:connector-curvature="0"
         sodipodi:nodetypes="cc" />
      <path
         style="font-family:Menlo, 'DejaVu Sans Mono', Consolas, Courier;fill:none;stroke:#000000;stroke-width:2;stroke-linecap:butt;stroke-linejoin:miter;stroke-miterlimit:4;stroke-dasharray:none;stroke-opacity:0.17733992"
         d="M 81,20.868285 V 16"
         id="path6446-6-5-50"
         inkscape:connector-curvature="0" />
      <path
         style="font-family:Menlo, 'DejaVu Sans Mono', Consolas, Courier;fill:none;stroke:#000000;stroke-width:2;stroke-linecap:butt;stroke-linejoin:miter;stroke-miterlimit:4;stroke-dasharray:none;stroke-opacity:0.17733992"
         d="M 81,54 V 50.934497"
         id="path6446-3-7-6-3"
         inkscape:connector-curvature="0"
         sodipodi:nodetypes="cc" />
      <path
         style="font-family:Menlo, 'DejaVu Sans Mono', Consolas, Courier;fill:none;stroke:#000000;stroke-width:2;stroke-linecap:butt;stroke-linejoin:miter;stroke-miterlimit:4;stroke-dasharray:none;stroke-opacity:0.17733992"
         d="M 101,20.868285 V 16"
         id="path6446-6-2-6"
         inkscape:connector-curvature="0" />
      <path
         style="font-family:Menlo, 'DejaVu Sans Mono', Consolas, Courier;fill:none;stroke:#000000;stroke-width:2;stroke-linecap:butt;stroke-linejoin:miter;stroke-miterlimit:4;stroke-dasharray:none;stroke-opacity:0.17733992"
         d="M 101,54 V 50.934497"
         id="path6446-3-7-9-1"
         inkscape:connector-curvature="0"
         sodipodi:nodetypes="cc" />
      <path
         style="font-family:Menlo, 'DejaVu Sans Mono', Consolas, Courier;fill:none;stroke:#000000;stroke-width:2;stroke-linecap:butt;stroke-linejoin:miter;stroke-miterlimit:4;stroke-dasharray:none;stroke-opacity:0.17733992"
         d="M 121,20.868285 V 16"
         id="path6446-5-1-0"
         inkscape:connector-curvature="0" />
      <path
         style="font-family:Menlo, 'DejaVu Sans Mono', Consolas, Courier;fill:none;stroke:#000000;stroke-width:2;stroke-linecap:butt;stroke-linejoin:miter;stroke-miterlimit:4;stroke-dasharray:none;stroke-opacity:0.17733992"
         d="M 121,54 V 50.934497"
         id="path6446-3-3-2-6"
         inkscape:connector-curvature="0"
         sodipodi:nodetypes="cc" />
      <path
         style="font-family:Menlo, 'DejaVu Sans Mono', Consolas, Courier;fill:none;stroke:#000000;stroke-width:2;stroke-linecap:butt;stroke-linejoin:miter;stroke-miterlimit:4;stroke-dasharray:none;stroke-opacity:0.17733992"
         d="M 141,20.868285 V 16"
         id="path6446-6-5-7-3"
         inkscape:connector-curvature="0" />
      <path
         style="font-family:Menlo, 'DejaVu Sans Mono', Consolas, Courier;fill:none;stroke:#000000;stroke-width:2;stroke-linecap:butt;stroke-linejoin:miter;stroke-miterlimit:4;stroke-dasharray:none;stroke-opacity:0.17733992"
         d="M 141,54 V 50.934497"
         id="path6446-3-7-6-0-2"
         inkscape:connector-curvature="0"
         sodipodi:nodetypes="cc" />
    </g>
    <path
       sodipodi:nodetypes="cc"
       inkscape:connector-curvature="0"
       id="path6446-6-5-6-0"
       d="M 161,23.809545 V 16"
       style="font-family:Menlo, 'DejaVu Sans Mono', Consolas, Courier;fill:none;stroke:#000000;stroke-width:2;stroke-linecap:butt;stroke-linejoin:miter;stroke-miterlimit:4;stroke-dasharray:none;stroke-opacity:0.49803922" />
    <path
       sodipodi:nodetypes="cc"
       inkscape:connector-curvature="0"
       id="path6446-3-7-6-2-6"
       d="M 161,54 V 47.993237"
       style="font-family:Menlo, 'DejaVu Sans Mono', Consolas, Courier;fill:none;stroke:#000000;stroke-width:2;stroke-linecap:butt;stroke-linejoin:miter;stroke-miterlimit:4;stroke-dasharray:none;stroke-opacity:0.49803922" />
  </g>
  <g
     transform="translate(480,24)"
     style="font-family:Menlo, 'DejaVu Sans Mono', Consolas, Courier"
     id="g6588-1">
    <g
       id="g6549-5">
      <path
         style="fill:none;stroke:#000000;stroke-width:2;stroke-linecap:butt;stroke-linejoin:miter;stroke-miterlimit:4;stroke-dasharray:none;stroke-opacity:0.17733992"
         d="M 21,20.868285 V 16"
         id="path6446-54"
         inkscape:connector-curvature="0" />
      <path
         style="font-family:Menlo, 'DejaVu Sans Mono', Consolas, Courier;fill:none;stroke:#000000;stroke-width:2;stroke-linecap:butt;stroke-linejoin:miter;stroke-miterlimit:4;stroke-dasharray:none;stroke-opacity:0.17733992"
         d="M 21,54 V 50.934497"
         id="path6446-3-76"
         inkscape:connector-curvature="0"
         sodipodi:nodetypes="cc" />
      <path
         style="font-family:Menlo, 'DejaVu Sans Mono', Consolas, Courier;fill:none;stroke:#000000;stroke-width:2;stroke-linecap:butt;stroke-linejoin:miter;stroke-miterlimit:4;stroke-dasharray:none;stroke-opacity:0.17733992"
         d="M 41,20.868285 V 16"
         id="path6446-6-56"
         inkscape:connector-curvature="0" />
      <path
         style="font-family:Menlo, 'DejaVu Sans Mono', Consolas, Courier;fill:none;stroke:#000000;stroke-width:2;stroke-linecap:butt;stroke-linejoin:miter;stroke-miterlimit:4;stroke-dasharray:none;stroke-opacity:0.17733992"
         d="M 41,54 V 50.934497"
         id="path6446-3-7-93"
         inkscape:connector-curvature="0"
         sodipodi:nodetypes="cc" />
      <path
         style="font-family:Menlo, 'DejaVu Sans Mono', Consolas, Courier;fill:none;stroke:#000000;stroke-width:2;stroke-linecap:butt;stroke-linejoin:miter;stroke-miterlimit:4;stroke-dasharray:none;stroke-opacity:0.17733992"
         d="M 61,20.868285 V 16"
         id="path6446-5-7"
         inkscape:connector-curvature="0" />
      <path
         style="font-family:Menlo, 'DejaVu Sans Mono', Consolas, Courier;fill:none;stroke:#000000;stroke-width:2;stroke-linecap:butt;stroke-linejoin:miter;stroke-miterlimit:4;stroke-dasharray:none;stroke-opacity:0.17733992"
         d="M 61,54 V 50.934497"
         id="path6446-3-3-45"
         inkscape:connector-curvature="0"
         sodipodi:nodetypes="cc" />
      <path
         style="font-family:Menlo, 'DejaVu Sans Mono', Consolas, Courier;fill:none;stroke:#000000;stroke-width:2;stroke-linecap:butt;stroke-linejoin:miter;stroke-miterlimit:4;stroke-dasharray:none;stroke-opacity:0.17733992"
         d="M 81,20.868285 V 16"
         id="path6446-6-5-2"
         inkscape:connector-curvature="0" />
      <path
         style="font-family:Menlo, 'DejaVu Sans Mono', Consolas, Courier;fill:none;stroke:#000000;stroke-width:2;stroke-linecap:butt;stroke-linejoin:miter;stroke-miterlimit:4;stroke-dasharray:none;stroke-opacity:0.17733992"
         d="M 81,54 V 50.934497"
         id="path6446-3-7-6-5"
         inkscape:connector-curvature="0"
         sodipodi:nodetypes="cc" />
      <path
         style="font-family:Menlo, 'DejaVu Sans Mono', Consolas, Courier;fill:none;stroke:#000000;stroke-width:2;stroke-linecap:butt;stroke-linejoin:miter;stroke-miterlimit:4;stroke-dasharray:none;stroke-opacity:0.17733992"
         d="M 101,20.868285 V 16"
         id="path6446-6-2-4"
         inkscape:connector-curvature="0" />
      <path
         style="font-family:Menlo, 'DejaVu Sans Mono', Consolas, Courier;fill:none;stroke:#000000;stroke-width:2;stroke-linecap:butt;stroke-linejoin:miter;stroke-miterlimit:4;stroke-dasharray:none;stroke-opacity:0.17733992"
         d="M 101,54 V 50.934497"
         id="path6446-3-7-9-7"
         inkscape:connector-curvature="0"
         sodipodi:nodetypes="cc" />
      <path
         style="font-family:Menlo, 'DejaVu Sans Mono', Consolas, Courier;fill:none;stroke:#000000;stroke-width:2;stroke-linecap:butt;stroke-linejoin:miter;stroke-miterlimit:4;stroke-dasharray:none;stroke-opacity:0.17733992"
         d="M 121,20.868285 V 16"
         id="path6446-5-1-4"
         inkscape:connector-curvature="0" />
      <path
         style="font-family:Menlo, 'DejaVu Sans Mono', Consolas, Courier;fill:none;stroke:#000000;stroke-width:2;stroke-linecap:butt;stroke-linejoin:miter;stroke-miterlimit:4;stroke-dasharray:none;stroke-opacity:0.17733992"
         d="M 121,54 V 50.934497"
         id="path6446-3-3-2-4"
         inkscape:connector-curvature="0"
         sodipodi:nodetypes="cc" />
      <path
         style="font-family:Menlo, 'DejaVu Sans Mono', Consolas, Courier;fill:none;stroke:#000000;stroke-width:2;stroke-linecap:butt;stroke-linejoin:miter;stroke-miterlimit:4;stroke-dasharray:none;stroke-opacity:0.17733992"
         d="M 141,20.868285 V 16"
         id="path6446-6-5-7-30"
         inkscape:connector-curvature="0" />
      <path
         style="font-family:Menlo, 'DejaVu Sans Mono', Consolas, Courier;fill:none;stroke:#000000;stroke-width:2;stroke-linecap:butt;stroke-linejoin:miter;stroke-miterlimit:4;stroke-dasharray:none;stroke-opacity:0.17733992"
         d="M 141,54 V 50.934497"
         id="path6446-3-7-6-0-7"
         inkscape:connector-curvature="0"
         sodipodi:nodetypes="cc" />
    </g>
    <path
       sodipodi:nodetypes="cc"
       inkscape:connector-curvature="0"
       id="path6446-6-5-6-8"
       d="M 161,23.809545 V 16"
       style="font-family:Menlo, 'DejaVu Sans Mono', Consolas, Courier;fill:none;stroke:#000000;stroke-width:2;stroke-linecap:butt;stroke-linejoin:miter;stroke-miterlimit:4;stroke-dasharray:none;stroke-opacity:0.49803922" />
    <path
       sodipodi:nodetypes="cc"
       inkscape:connector-curvature="0"
       id="path6446-3-7-6-2-68"
       d="M 161,54 V 47.993237"
       style="font-family:Menlo, 'DejaVu Sans Mono', Consolas, Courier;fill:none;stroke:#000000;stroke-width:2;stroke-linecap:butt;stroke-linejoin:miter;stroke-miterlimit:4;stroke-dasharray:none;stroke-opacity:0.49803922" />
  </g>
  <path
     style="font-family:Menlo, 'DejaVu Sans Mono', Consolas, Courier;fill:none;stroke:#000000;stroke-width:2;stroke-linecap:butt;stroke-linejoin:miter;stroke-miterlimit:4;stroke-dasharray:none;stroke-opacity:0.49803922"
     d="M 1,47.809545 V 40"
     id="path6446-6-5-6-84"
     inkscape:connector-curvature="0"
     sodipodi:nodetypes="cc" />
  <path
     style="font-family:Menlo, 'DejaVu Sans Mono', Consolas, Courier;fill:none;stroke:#000000;stroke-width:2;stroke-linecap:butt;stroke-linejoin:miter;stroke-miterlimit:4;stroke-dasharray:none;stroke-opacity:0.49803922"
     d="M 1,78 V 71.993237"
     id="path6446-3-7-6-2-3"
     inkscape:connector-curvature="0"
     sodipodi:nodetypes="cc" />
  <text
     y="12.174803"
     style="font-weight:normal;font-size:9.33333302px;font-family:Menlo, 'DejaVu Sans Mono', Consolas, Courier;text-align:center;text-anchor:middle;fill:#000000;fill-rule:evenodd;stroke:none;stroke-width:1"
     id="31-8"
     sketch:type="MSTextLayer"
     x="85.029945">
    <tspan
       x="81"
       y="21.174803"
       id="tspan1759-3"
       style="font-size:9.33333302px;text-align:center;text-anchor:middle">LSB</tspan>
  </text>
  <text
     y="12.174805"
     style="font-weight:normal;font-size:9.33333302px;font-family:Menlo, 'DejaVu Sans Mono', Consolas, Courier;text-align:center;text-anchor:middle;fill:#000000;fill-rule:evenodd;stroke:none;stroke-width:1"
     id="31-8-8"
     sketch:type="MSTextLayer"
     x="565.05048">
    <tspan
       x="561.02051"
       y="21.174803"
       id="tspan1759-3-3"
       style="font-size:9.33333302px;text-align:center;text-anchor:middle">MLB</tspan>
  </text>
  <text
     y="12.174803"
     style="font-weight:normal;font-size:9.0666666px;font-family:Menlo, 'DejaVu Sans Mono', Consolas, Courier;text-align:center;text-anchor:middle;fill:#000000;fill-rule:evenodd;stroke:none;stroke-width:1"
     id="31-8-3"
     sketch:type="MSTextLayer"
     x="325.02997">
    <tspan
       x="321"
       y="21.174803"
       id="tspan1759-3-38"
       style="font-size:16px;text-align:center;text-anchor:middle">J Format</tspan>
  </text>
  <rect
     style="font-family:Menlo, 'DejaVu Sans Mono', Consolas, Courier;fill:#19fb00;fill-opacity:0.31527094;stroke:none;stroke-width:3.60901666;stroke-linejoin:round;stroke-miterlimit:4;stroke-dasharray:none;stroke-opacity:0.49803922"
     id="rect6934-0-4-7-6"
     width="521"
     height="38"
     x="-642"
     y="40"
     transform="scale(-1,1)" />
  <text
     y="55.346058"
     style="font-weight:normal;font-size:14.66666698px;font-family:Menlo, 'DejaVu Sans Mono', Consolas, Courier;text-align:center;text-anchor:middle;fill:#000000;fill-rule:evenodd;stroke:none;stroke-width:1"
     id="31-8-3-9-6-0-3"
     sketch:type="MSTextLayer"
     x="385.12177">
    <tspan
       x="381.0918"
       y="64.346031"
       id="tspan1759-3-38-0-8-3-3"
       style="font-size:14.66666698px;text-align:center;text-anchor:middle">instr_index</tspan>
  </text>
  <text
     y="55.546562"
     style="font-weight:normal;font-size:14.66666698px;font-family:Menlo, 'DejaVu Sans Mono', Consolas, Courier;text-align:center;text-anchor:middle;fill:#000000;fill-rule:evenodd;stroke:none;stroke-width:1"
     id="31-8-3-9-65"
     sketch:type="MSTextLayer"
     x="9.5101137">
    <tspan
       x="61"
       y="64.546547"
       id="tspan1759-3-38-0-2"
       style="font-size:14.66666698px;text-align:center;letter-spacing:0px;text-anchor:middle">opcode</tspan>
  </text>
</svg>
